PCBNEW-LibModule-V1  
# encoding utf-8
Units mm
$INDEX
SOIC127P600X175-14N
$EndINDEX
$MODULE SOIC127P600X175-14N
Po 0 0 0 15 00000000 00000000 ~~
Li SOIC127P600X175-14N
Cd 
Sc 00000000
At SMD
Op 0 0 0
.SolderMask 0
.SolderPaste 0
T0 -0.43206 -6.15209 1.64795 1.64795 0 0.05 N V 21 "SOIC127P600X175-14N"
T1 0.360727 5.7197 1.64807 1.64807 0 0.05 N V 21 "VAL**"
DS -2 -4.37 2 -4.37 0.127 24
DS 2 -4.37 2 4.37 0.127 24
DS 2 4.37 -2 4.37 0.127 24
DS -2 4.37 -2 -4.37 0.127 24
DS -2 -4.37 2 -4.37 0.127 21
DS 2 4.37 -2 4.37 0.127 21
DC -4.3 -3.9 -4.2 -3.9 0.3 21
DC -1.4 -3.7 -1.3 -3.7 0.3 24
DS -3.71 -4.62 3.71 -4.62 0.05 26
DS 3.71 -4.62 3.71 4.62 0.05 26
DS 3.71 4.62 -3.71 4.62 0.05 26
DS -3.71 4.62 -3.71 -4.62 0.05 26
$PAD
Sh "1" R 1.97 0.6 0 0 0
At SMD N 00888000
.SolderMask 0
.SolderPaste 0
Ne 0 ""
Po -2.47 -3.81
$EndPAD
$PAD
Sh "2" R 1.97 0.6 0 0 0
At SMD N 00888000
.SolderMask 0
.SolderPaste 0
Ne 0 ""
Po -2.47 -2.54
$EndPAD
$PAD
Sh "3" R 1.97 0.6 0 0 0
At SMD N 00888000
.SolderMask 0
.SolderPaste 0
Ne 0 ""
Po -2.47 -1.27
$EndPAD
$PAD
Sh "4" R 1.97 0.6 0 0 0
At SMD N 00888000
.SolderMask 0
.SolderPaste 0
Ne 0 ""
Po -2.47 0
$EndPAD
$PAD
Sh "5" R 1.97 0.6 0 0 0
At SMD N 00888000
.SolderMask 0
.SolderPaste 0
Ne 0 ""
Po -2.47 1.27
$EndPAD
$PAD
Sh "6" R 1.97 0.6 0 0 0
At SMD N 00888000
.SolderMask 0
.SolderPaste 0
Ne 0 ""
Po -2.47 2.54
$EndPAD
$PAD
Sh "7" R 1.97 0.6 0 0 0
At SMD N 00888000
.SolderMask 0
.SolderPaste 0
Ne 0 ""
Po -2.47 3.81
$EndPAD
$PAD
Sh "8" R 1.97 0.6 0 0 0
At SMD N 00888000
.SolderMask 0
.SolderPaste 0
Ne 0 ""
Po 2.47 3.81
$EndPAD
$PAD
Sh "9" R 1.97 0.6 0 0 0
At SMD N 00888000
.SolderMask 0
.SolderPaste 0
Ne 0 ""
Po 2.47 2.54
$EndPAD
$PAD
Sh "10" R 1.97 0.6 0 0 0
At SMD N 00888000
.SolderMask 0
.SolderPaste 0
Ne 0 ""
Po 2.47 1.27
$EndPAD
$PAD
Sh "11" R 1.97 0.6 0 0 0
At SMD N 00888000
.SolderMask 0
.SolderPaste 0
Ne 0 ""
Po 2.47 0
$EndPAD
$PAD
Sh "12" R 1.97 0.6 0 0 0
At SMD N 00888000
.SolderMask 0
.SolderPaste 0
Ne 0 ""
Po 2.47 -1.27
$EndPAD
$PAD
Sh "13" R 1.97 0.6 0 0 0
At SMD N 00888000
.SolderMask 0
.SolderPaste 0
Ne 0 ""
Po 2.47 -2.54
$EndPAD
$PAD
Sh "14" R 1.97 0.6 0 0 0
At SMD N 00888000
.SolderMask 0
.SolderPaste 0
Ne 0 ""
Po 2.47 -3.81
$EndPAD
$EndMODULE SOIC127P600X175-14N
