(module BlackPill (layer F.Cu) (tedit 606B18C0)
  (fp_text reference REF** (at -22.9 5.6) (layer F.SilkS)
    (effects (font (size 1 1) (thickness 0.15)))
  )
  (fp_text value BlackPill (at 0 0) (layer F.Fab)
    (effects (font (size 1 1) (thickness 0.15)))
  )
  (fp_text user 20.65*52*89 (at 0 5) (layer F.Fab)
    (effects (font (size 1 1) (thickness 0.15)))
  )
  (fp_line (start -25.4 10.35) (end -25.4 -10.35) (layer F.CrtYd) (width 0.15))
  (fp_line (start -25.4 10.35) (end 27.5 10.35) (layer F.CrtYd) (width 0.15))
  (fp_line (start 27.5 -10.35) (end 27.5 10.35) (layer F.CrtYd) (width 0.15))
  (fp_line (start 27.5 -10.35) (end -25.4 -10.35) (layer F.CrtYd) (width 0.15))
  (fp_line (start -17.9 4.5) (end -17.9 0) (layer F.SilkS) (width 0.15))
  (fp_line (start -17.9 0) (end -17.9 -4.5) (layer F.SilkS) (width 0.15))
  (fp_line (start -17.9 -4.5) (end -25.4 -4.5) (layer F.SilkS) (width 0.15))
  (fp_line (start -25.4 4.5) (end -17.9 4.5) (layer F.SilkS) (width 0.15))
  (fp_line (start -25.4 10.35) (end -25.4 -10.35) (layer F.SilkS) (width 0.15))
  (fp_line (start 27.5 -10.35) (end -25.4 -10.35) (layer F.SilkS) (width 0.15))
  (fp_line (start -25.4 10.35) (end 27.5 10.35) (layer F.SilkS) (width 0.15))
  (fp_line (start 27.5 -10.35) (end 27.5 10.35) (layer F.SilkS) (width 0.15))
  (pad 1 thru_hole circle (at -24.13 7.62) (size 1.524 1.524) (drill 0.9) (layers *.Cu *.Mask))
  (pad 2 thru_hole circle (at -21.59 7.62) (size 1.524 1.524) (drill 0.9) (layers *.Cu *.Mask))
  (pad 3 thru_hole circle (at -19.05 7.62) (size 1.524 1.524) (drill 0.9) (layers *.Cu *.Mask))
  (pad 4 thru_hole circle (at -16.51 7.62) (size 1.524 1.524) (drill 0.9) (layers *.Cu *.Mask))
  (pad 5 thru_hole circle (at -13.97 7.62) (size 1.524 1.524) (drill 0.9) (layers *.Cu *.Mask))
  (pad 6 thru_hole circle (at -11.43 7.62) (size 1.524 1.524) (drill 0.9) (layers *.Cu *.Mask))
  (pad 7 thru_hole circle (at -8.89 7.62) (size 1.524 1.524) (drill 0.9) (layers *.Cu *.Mask))
  (pad 8 thru_hole circle (at -6.35 7.62) (size 1.524 1.524) (drill 0.9) (layers *.Cu *.Mask))
  (pad 9 thru_hole circle (at -3.81 7.62) (size 1.524 1.524) (drill 0.9) (layers *.Cu *.Mask))
  (pad 10 thru_hole circle (at -1.27 7.62) (size 1.524 1.524) (drill 0.9) (layers *.Cu *.Mask))
  (pad 11 thru_hole circle (at 1.27 7.62) (size 1.524 1.524) (drill 0.9) (layers *.Cu *.Mask))
  (pad 12 thru_hole circle (at 3.81 7.62) (size 1.524 1.524) (drill 0.9) (layers *.Cu *.Mask))
  (pad 13 thru_hole circle (at 6.35 7.62) (size 1.524 1.524) (drill 0.9) (layers *.Cu *.Mask))
  (pad 14 thru_hole circle (at 8.89 7.62) (size 1.524 1.524) (drill 0.9) (layers *.Cu *.Mask))
  (pad 15 thru_hole circle (at 11.43 7.62) (size 1.524 1.524) (drill 0.9) (layers *.Cu *.Mask))
  (pad 16 thru_hole circle (at 13.97 7.62) (size 1.524 1.524) (drill 0.9) (layers *.Cu *.Mask))
  (pad 17 thru_hole circle (at 16.51 7.62) (size 1.524 1.524) (drill 0.9) (layers *.Cu *.Mask))
  (pad 18 thru_hole circle (at 19.05 7.62) (size 1.524 1.524) (drill 0.9) (layers *.Cu *.Mask))
  (pad 19 thru_hole circle (at 21.59 7.62) (size 1.524 1.524) (drill 0.9) (layers *.Cu *.Mask))
  (pad 20 thru_hole circle (at 24.13 7.62) (size 1.524 1.524) (drill 0.9) (layers *.Cu *.Mask))
  (pad 21 thru_hole circle (at 24.13 -7.62) (size 1.524 1.524) (drill 0.9) (layers *.Cu *.Mask))
  (pad 22 thru_hole circle (at 21.59 -7.62) (size 1.524 1.524) (drill 0.9) (layers *.Cu *.Mask))
  (pad 23 thru_hole circle (at 19.05 -7.62) (size 1.524 1.524) (drill 0.9) (layers *.Cu *.Mask))
  (pad 24 thru_hole circle (at 16.51 -7.62) (size 1.524 1.524) (drill 0.9) (layers *.Cu *.Mask))
  (pad 25 thru_hole circle (at 13.97 -7.62) (size 1.524 1.524) (drill 0.9) (layers *.Cu *.Mask))
  (pad 26 thru_hole circle (at 11.43 -7.62) (size 1.524 1.524) (drill 0.9) (layers *.Cu *.Mask))
  (pad 27 thru_hole circle (at 8.89 -7.62) (size 1.524 1.524) (drill 0.9) (layers *.Cu *.Mask))
  (pad 28 thru_hole circle (at 6.35 -7.62) (size 1.524 1.524) (drill 0.9) (layers *.Cu *.Mask))
  (pad 29 thru_hole circle (at 3.81 -7.62) (size 1.524 1.524) (drill 0.9) (layers *.Cu *.Mask))
  (pad 30 thru_hole circle (at 1.27 -7.62) (size 1.524 1.524) (drill 0.9) (layers *.Cu *.Mask))
  (pad 31 thru_hole circle (at -1.27 -7.62) (size 1.524 1.524) (drill 0.9) (layers *.Cu *.Mask))
  (pad 32 thru_hole circle (at -3.81 -7.62) (size 1.524 1.524) (drill 0.9) (layers *.Cu *.Mask))
  (pad 33 thru_hole circle (at -6.35 -7.62) (size 1.524 1.524) (drill 0.9) (layers *.Cu *.Mask))
  (pad 34 thru_hole circle (at -8.89 -7.62) (size 1.524 1.524) (drill 0.9) (layers *.Cu *.Mask))
  (pad 35 thru_hole circle (at -11.43 -7.62) (size 1.524 1.524) (drill 0.9) (layers *.Cu *.Mask))
  (pad 36 thru_hole circle (at -13.97 -7.62) (size 1.524 1.524) (drill 0.9) (layers *.Cu *.Mask))
  (pad 37 thru_hole circle (at -16.51 -7.62) (size 1.524 1.524) (drill 0.9) (layers *.Cu *.Mask))
  (pad 38 thru_hole circle (at -19.05 -7.62) (size 1.524 1.524) (drill 0.9) (layers *.Cu *.Mask))
  (pad 39 thru_hole circle (at -21.59 -7.62) (size 1.524 1.524) (drill 0.9) (layers *.Cu *.Mask))
  (pad 40 thru_hole circle (at -24.13 -7.62) (size 1.524 1.524) (drill 0.9) (layers *.Cu *.Mask))
)
