(module Connector_FFC-FPC_1x10_P1.0mm_Vertical locked (layer F.Cu) (tedit 5E007EE9)
  (fp_text reference J2 (at 9.8 -0.1 90) (layer F.SilkS)
    (effects (font (size 1 1) (thickness 0.15)))
  )
  (fp_text value Conn_01x10 (at 0.01 -3.59) (layer F.Fab) hide
    (effects (font (size 1 1) (thickness 0.15)))
  )
  (fp_line (start -8.5 -1.65) (end -8.5 0.2) (layer F.SilkS) (width 0.2))
  (fp_line (start -8.5 -1.65) (end 8.5 -1.65) (layer F.SilkS) (width 0.2))
  (fp_line (start 8.5 -1.65) (end 8.5 1.65) (layer F.SilkS) (width 0.2))
  (fp_line (start -7.05 1.65) (end 8.5 1.65) (layer F.SilkS) (width 0.2))
  (fp_line (start -8.5 0.2) (end -7.05 1.65) (layer F.SilkS) (width 0.2))
  (fp_line (start -8.5 -2.5) (end -8.5 2.5) (layer F.CrtYd) (width 0.2))
  (fp_line (start -8.5 2.5) (end 8.5 2.5) (layer F.CrtYd) (width 0.2))
  (fp_line (start 8.5 2.5) (end 8.5 -2.5) (layer F.CrtYd) (width 0.2))
  (fp_line (start 8.5 -2.5) (end -8.5 -2.5) (layer F.CrtYd) (width 0.2))
  (pad 1 smd rect (at -4.5 -1.4) (size 0.6 1.5) (layers F.Cu F.Paste F.Mask))
  (pad 2 smd rect (at -3.5 -1.4) (size 0.6 1.5) (layers F.Cu F.Paste F.Mask))
  (pad 3 smd rect (at -2.5 -1.4) (size 0.6 1.5) (layers F.Cu F.Paste F.Mask))
  (pad 4 smd rect (at -1.5 -1.4) (size 0.6 1.5) (layers F.Cu F.Paste F.Mask))
  (pad 5 smd rect (at -0.5 -1.4) (size 0.6 1.5) (layers F.Cu F.Paste F.Mask))
  (pad 6 smd rect (at 0.5 -1.4) (size 0.6 1.5) (layers F.Cu F.Paste F.Mask))
  (pad 7 smd rect (at 1.5 -1.4) (size 0.6 1.5) (layers F.Cu F.Paste F.Mask))
  (pad 8 smd rect (at 2.5 -1.4) (size 0.6 1.5) (layers F.Cu F.Paste F.Mask))
  (pad 6 smd rect (at 0.5 1.4) (size 0.6 1.5) (layers F.Cu F.Paste F.Mask))
  (pad 1 smd rect (at -4.5 1.4) (size 0.6 1.5) (layers F.Cu F.Paste F.Mask))
  (pad 7 smd rect (at 1.5 1.4) (size 0.6 1.5) (layers F.Cu F.Paste F.Mask))
  (pad 5 smd rect (at -0.5 1.4) (size 0.6 1.5) (layers F.Cu F.Paste F.Mask))
  (pad 2 smd rect (at -3.5 1.4) (size 0.6 1.5) (layers F.Cu F.Paste F.Mask))
  (pad 3 smd rect (at -2.5 1.4) (size 0.6 1.5) (layers F.Cu F.Paste F.Mask))
  (pad 4 smd rect (at -1.5 1.4) (size 0.6 1.5) (layers F.Cu F.Paste F.Mask))
  (pad 8 smd rect (at 2.5 1.4) (size 0.6 1.5) (layers F.Cu F.Paste F.Mask))
  (pad 9 smd rect (at 3.5 -1.4) (size 0.6 1.5) (layers F.Cu F.Paste F.Mask))
  (pad 10 smd rect (at 4.5 -1.4) (size 0.6 1.5) (layers F.Cu F.Paste F.Mask))
  (pad 9 smd rect (at 3.5 1.4) (size 0.6 1.5) (layers F.Cu F.Paste F.Mask))
  (pad 10 smd rect (at 4.5 1.4) (size 0.6 1.5) (layers F.Cu F.Paste F.Mask))
)
