(module D_MiniMELF (layer F.Cu) (tedit 5DF8C474)
  (descr "Diode Mini-MELF")
  (tags "Diode Mini-MELF")
  (attr smd)
  (fp_text reference D1 (at -0.01 -1.7) (layer F.SilkS)
    (effects (font (size 0.8 0.8) (thickness 0.15)))
  )
  (fp_text value LL4148 (at 0 1.75) (layer F.Fab)
    (effects (font (size 1 1) (thickness 0.15)))
  )
  (fp_text user %R (at -0.01 -1.79) (layer F.Fab)
    (effects (font (size 1 1) (thickness 0.15)))
  )
  (fp_line (start 0 -1) (end -2.37 -1) (layer F.SilkS) (width 0.12))
  (fp_line (start -2.55 -0.82) (end -2.55 1) (layer F.SilkS) (width 0.12))
  (fp_line (start -2.55 1) (end 0 1) (layer F.SilkS) (width 0.12))
  (fp_line (start 1.65 -0.8) (end 1.65 0.8) (layer F.Fab) (width 0.1))
  (fp_line (start 1.65 0.8) (end -1.65 0.8) (layer F.Fab) (width 0.1))
  (fp_line (start -1.65 0.8) (end -1.65 -0.8) (layer F.Fab) (width 0.1))
  (fp_line (start -1.65 -0.8) (end 1.65 -0.8) (layer F.Fab) (width 0.1))
  (fp_line (start 0.25 0) (end 0.75 0) (layer F.Fab) (width 0.1))
  (fp_line (start 0.25 0.4) (end -0.35 0) (layer F.Fab) (width 0.1))
  (fp_line (start 0.25 -0.4) (end 0.25 0.4) (layer F.Fab) (width 0.1))
  (fp_line (start -0.35 0) (end 0.25 -0.4) (layer F.Fab) (width 0.1))
  (fp_line (start -0.35 0) (end -0.35 0.55) (layer F.Fab) (width 0.1))
  (fp_line (start -0.35 0) (end -0.35 -0.55) (layer F.Fab) (width 0.1))
  (fp_line (start -0.75 0) (end -0.35 0) (layer F.Fab) (width 0.1))
  (fp_line (start -2.65 -1.1) (end 2.65 -1.1) (layer F.CrtYd) (width 0.05))
  (fp_line (start 2.65 -1.1) (end 2.65 1.1) (layer F.CrtYd) (width 0.05))
  (fp_line (start 2.65 1.1) (end -2.65 1.1) (layer F.CrtYd) (width 0.05))
  (fp_line (start -2.65 1.1) (end -2.65 -1.1) (layer F.CrtYd) (width 0.05))
  (fp_line (start 0.25 0) (end 0.75 0) (layer F.SilkS) (width 0.1))
  (fp_line (start 0.25 0.4) (end -0.35 0) (layer F.SilkS) (width 0.1))
  (fp_line (start 0.25 -0.4) (end 0.25 0.4) (layer F.SilkS) (width 0.1))
  (fp_line (start -0.35 0) (end 0.25 -0.4) (layer F.SilkS) (width 0.1))
  (fp_line (start -0.35 0) (end -0.35 -0.4) (layer F.SilkS) (width 0.1))
  (fp_line (start -0.75 0) (end -0.35 0) (layer F.SilkS) (width 0.1))
  (fp_line (start -0.35 0.4) (end -0.35 0) (layer F.SilkS) (width 0.1))
  (fp_circle (center -2.65 -1.1) (end -2.54 -1.18) (layer F.SilkS) (width 0.1))
  (fp_line (start -2.37 -1) (end -2.55 -0.82) (layer F.SilkS) (width 0.12))
  (pad 1 smd rect (at -1.75 0) (size 1.3 1.7) (layers F.Cu F.Paste F.Mask))
  (pad 2 smd rect (at 1.75 0) (size 1.3 1.7) (layers F.Cu F.Paste F.Mask))
  (model ${KISYS3DMOD}/Diode_SMD.3dshapes/D_MiniMELF.wrl
    (at (xyz 0 0 0))
    (scale (xyz 1 1 1))
    (rotate (xyz 0 0 0))
  )
)
