(module D_SMA_12 (layer F.Cu) (tedit 5C274501)
  (descr "Diode SMA (DO-214AC)")
  (tags "Diode SMA (DO-214AC)")
  (attr smd)
  (fp_text reference D2 (at 0 1.8) (layer F.SilkS)
    (effects (font (size 1 1) (thickness 0.15)))
  )
  (fp_text value SS24-SMA (at 0 2.6) (layer F.Fab)
    (effects (font (size 1 1) (thickness 0.15)))
  )
  (fp_line (start 0.5 0.8) (end -0.6 0) (layer F.Fab) (width 0.1))
  (fp_line (start -0.59882 0.00092) (end 0.50118 -0.79908) (layer F.Fab) (width 0.1))
  (fp_line (start 0.50118 0.75032) (end 0.50118 -0.79908) (layer F.Fab) (width 0.1))
  (fp_line (start -0.6 -0.8) (end -0.6 0.8) (layer F.Fab) (width 0.1))
  (fp_line (start 0.50118 0.00102) (end 1.4994 0.00102) (layer F.Fab) (width 0.1))
  (fp_line (start -0.64944 0.00102) (end -1.55114 0.00102) (layer F.Fab) (width 0.1))
  (fp_line (start -3.5 1.75) (end -3.5 -1.75) (layer F.CrtYd) (width 0.05))
  (fp_line (start 3.5 1.75) (end -3.5 1.75) (layer F.CrtYd) (width 0.05))
  (fp_line (start 3.5 -1.75) (end 3.5 1.75) (layer F.CrtYd) (width 0.05))
  (fp_line (start -3.5 -1.75) (end 3.5 -1.75) (layer F.CrtYd) (width 0.05))
  (fp_line (start 2.3 -1.5) (end -2.3 -1.5) (layer F.Fab) (width 0.1))
  (fp_line (start 2.3 -1.5) (end 2.3 1.5) (layer F.Fab) (width 0.1))
  (fp_line (start -2.3 1.5) (end -2.3 -1.5) (layer F.Fab) (width 0.1))
  (fp_line (start 2.3 1.5) (end -2.3 1.5) (layer F.Fab) (width 0.1))
  (fp_text user %R (at 0 -2.5) (layer F.Fab)
    (effects (font (size 1 1) (thickness 0.15)))
  )
  (fp_line (start -0.6 0) (end 0.5 0.8) (layer F.SilkS) (width 0.15))
  (fp_line (start 0.5 -0.8) (end -0.6 0) (layer F.SilkS) (width 0.15))
  (fp_line (start -0.6 0.8) (end -0.6 -0.8) (layer F.SilkS) (width 0.15))
  (fp_line (start 0.5 -0.8) (end 0.5 0.8) (layer F.SilkS) (width 0.15))
  (fp_line (start -3.4 -1.3) (end -3.4 1.3) (layer F.SilkS) (width 0.15))
  (fp_line (start -3.4 1.3) (end -2.9 1.3) (layer F.SilkS) (width 0.15))
  (fp_line (start -2.9 -1.3) (end -3.4 -1.3) (layer F.SilkS) (width 0.15))
  (pad 1 smd rect (at 2 0) (size 2.5 1.8) (layers F.Cu F.Paste F.Mask))
  (pad 2 smd rect (at -2 0) (size 2.5 1.8) (layers F.Cu F.Paste F.Mask))
  (model ${KISYS3DMOD}/Diode_SMD.3dshapes/D_SMA.wrl
    (at (xyz 0 0 0))
    (scale (xyz 1 1 1))
    (rotate (xyz 0 0 0))
  )
)
