(module FlipperZero (layer F.Cu) (tedit 5FEB8726)
  (fp_text reference REF** (at -5.08 0) (layer F.SilkS)
    (effects (font (size 1 1) (thickness 0.15)))
  )
  (fp_text value FlipperZero (at 2.54 0) (layer F.Fab)
    (effects (font (size 1 1) (thickness 0.15)))
  )
  (fp_line (start -27.94 -1.27) (end -27.94 1.27) (layer F.CrtYd) (width 0.15))
  (fp_line (start 33.02 1.27) (end 33.02 -1.27) (layer F.CrtYd) (width 0.15))
  (fp_line (start -27.94 -1.27) (end -27.94 1.27) (layer F.SilkS) (width 0.15))
  (fp_line (start -27.94 1.27) (end -7.62 1.27) (layer F.SilkS) (width 0.15))
  (fp_line (start -7.62 1.27) (end -7.62 -1.27) (layer F.SilkS) (width 0.15))
  (fp_line (start -7.62 -1.27) (end -27.94 -1.27) (layer F.SilkS) (width 0.15))
  (fp_line (start 7.62 -1.27) (end 7.62 1.27) (layer F.SilkS) (width 0.15))
  (fp_line (start 7.62 1.27) (end 33.02 1.27) (layer F.SilkS) (width 0.15))
  (fp_line (start 33.02 1.27) (end 33.02 -1.27) (layer F.SilkS) (width 0.15))
  (fp_line (start 33.02 -1.27) (end 7.62 -1.27) (layer F.SilkS) (width 0.15))
  (fp_line (start -25.4 1.27) (end -25.4 -1.27) (layer F.SilkS) (width 0.15))
  (fp_line (start 7.62 1.27) (end 7.62 -1.27) (layer F.CrtYd) (width 0.15))
  (fp_line (start 7.62 -1.27) (end 33.02 -1.27) (layer F.CrtYd) (width 0.15))
  (fp_line (start 33.02 1.27) (end 7.62 1.27) (layer F.CrtYd) (width 0.15))
  (fp_line (start -7.62 1.27) (end -27.94 1.27) (layer F.CrtYd) (width 0.15))
  (fp_line (start -27.94 -1.27) (end -7.62 -1.27) (layer F.CrtYd) (width 0.15))
  (fp_line (start -7.62 -1.27) (end -7.62 1.27) (layer F.CrtYd) (width 0.15))
  (pad 1 thru_hole circle (at -26.67 0 270) (size 1.524 1.524) (drill 0.9) (layers *.Cu *.Mask))
  (pad 2 thru_hole circle (at -24.13 0 270) (size 1.524 1.524) (drill 0.9) (layers *.Cu *.Mask))
  (pad 3 thru_hole circle (at -21.59 0 270) (size 1.524 1.524) (drill 0.9) (layers *.Cu *.Mask))
  (pad 4 thru_hole circle (at -19.05 0 270) (size 1.524 1.524) (drill 0.9) (layers *.Cu *.Mask))
  (pad 5 thru_hole circle (at -16.51 0 270) (size 1.524 1.524) (drill 0.9) (layers *.Cu *.Mask))
  (pad 6 thru_hole circle (at -13.97 0 270) (size 1.524 1.524) (drill 0.9) (layers *.Cu *.Mask))
  (pad 7 thru_hole circle (at -11.43 0 270) (size 1.524 1.524) (drill 0.9) (layers *.Cu *.Mask))
  (pad 8 thru_hole circle (at -8.89 0 270) (size 1.524 1.524) (drill 0.9) (layers *.Cu *.Mask))
  (pad 9 thru_hole circle (at 8.89 0 270) (size 1.524 1.524) (drill 0.9) (layers *.Cu *.Mask))
  (pad 10 thru_hole circle (at 11.43 0 270) (size 1.524 1.524) (drill 0.9) (layers *.Cu *.Mask))
  (pad 11 thru_hole circle (at 13.97 0 270) (size 1.524 1.524) (drill 0.9) (layers *.Cu *.Mask))
  (pad 12 thru_hole circle (at 16.51 0 270) (size 1.524 1.524) (drill 0.9) (layers *.Cu *.Mask))
  (pad 13 thru_hole circle (at 19.05 0 270) (size 1.524 1.524) (drill 0.9) (layers *.Cu *.Mask))
  (pad 14 thru_hole circle (at 21.59 0 270) (size 1.524 1.524) (drill 0.9) (layers *.Cu *.Mask))
  (pad 15 thru_hole circle (at 24.13 0 270) (size 1.524 1.524) (drill 0.9) (layers *.Cu *.Mask))
  (pad 16 thru_hole circle (at 26.67 0 270) (size 1.524 1.524) (drill 0.9) (layers *.Cu *.Mask))
  (pad 17 thru_hole circle (at 29.21 0 270) (size 1.524 1.524) (drill 0.9) (layers *.Cu *.Mask))
  (pad 18 thru_hole circle (at 31.75 0 270) (size 1.524 1.524) (drill 0.9) (layers *.Cu *.Mask))
  (model ${KISYS3DMOD}/Connector_PinHeader_2.54mm.3dshapes/PinHeader_1x08_P2.54mm_Horizontal.step
    (offset (xyz -26.65 0 -1.5))
    (scale (xyz 1 1 1))
    (rotate (xyz 0 180 -90))
  )
  (model ${KISYS3DMOD}/Connector_PinHeader_2.54mm.3dshapes/PinHeader_1x10_P2.54mm_Horizontal.step
    (offset (xyz 8.888 0 -1.5))
    (scale (xyz 1 1 1))
    (rotate (xyz -180 0 90))
  )
)
