(module IR908 locked (layer F.Cu) (tedit 5D14C7C2)
  (fp_text reference D1 (at 3 0 90) (layer F.SilkS)
    (effects (font (size 1 1) (thickness 0.15)))
  )
  (fp_text value LED_Small (at 0 -1.65) (layer F.Fab) hide
    (effects (font (size 1 1) (thickness 0.15)))
  )
  (fp_line (start 2.25 -0.75) (end -2.25 -0.75) (layer F.SilkS) (width 0.12))
  (fp_line (start -2.25 -0.75) (end -2.25 0.75) (layer F.SilkS) (width 0.12))
  (fp_line (start -2.25 0.75) (end 2.25 0.75) (layer F.SilkS) (width 0.12))
  (fp_line (start 2.25 0.75) (end 2.25 -0.75) (layer F.SilkS) (width 0.12))
  (fp_arc (start 0 0.75) (end -0.75 0.75) (angle -180) (layer F.SilkS) (width 0.12))
  (fp_line (start 2.25 -0.75) (end 2.25 0.75) (layer F.CrtYd) (width 0.12))
  (fp_line (start 2.25 0.75) (end 0.75 0.75) (layer F.CrtYd) (width 0.12))
  (fp_line (start 2.25 -0.75) (end -2.25 -0.75) (layer F.CrtYd) (width 0.12))
  (fp_line (start -2.25 -0.75) (end -2.25 0.75) (layer F.CrtYd) (width 0.12))
  (fp_line (start -2.25 0.75) (end -0.75 0.75) (layer F.CrtYd) (width 0.12))
  (fp_arc (start 0 0.75) (end -0.75 0.75) (angle -180) (layer F.CrtYd) (width 0.12))
  (pad 1 thru_hole circle (at -1.27 0) (size 1.6 1.6) (drill 0.65) (layers *.Cu *.Mask))
  (pad 2 thru_hole circle (at 1.27 0) (size 1.6 1.6) (drill 0.65) (layers *.Cu *.Mask))
)
