(module mount_hole_d2.2_pad (layer F.Cu) (tedit 5CE521A6)
  (fp_text reference MH1 (at 0 2.54) (layer F.SilkS) hide
    (effects (font (size 1 1) (thickness 0.15)))
  )
  (fp_text value MountingHole (at 0 -2.54) (layer F.Fab) hide
    (effects (font (size 1 1) (thickness 0.15)))
  )
  (pad 1 thru_hole circle (at 0 0) (size 2.7 2.7) (drill 2.2) (layers *.Cu *.Mask)
    (die_length 0.25))
)
