(module mount_hole_d3.2_min locked (layer F.Cu) (tedit 5DFB5DB1)
  (fp_text reference H7 (at 0 3) (layer F.SilkS) hide
    (effects (font (size 1 1) (thickness 0.15)))
  )
  (fp_text value "MountingHole 3.2" (at 0 -3.75) (layer F.Fab) hide
    (effects (font (size 1 1) (thickness 0.15)))
  )
  (fp_circle (center 0 0) (end 2.2 0) (layer B.SilkS) (width 0.2))
  (fp_circle (center 0 0) (end 2.2 0) (layer F.SilkS) (width 0.2))
  (fp_circle (center 0 0) (end 2.2 0) (layer B.CrtYd) (width 0.2))
  (fp_circle (center 0 0) (end 2.2 0) (layer F.CrtYd) (width 0.2))
  (pad "" np_thru_hole circle (at 0 0) (size 4 4) (drill 3.2) (layers *.Cu *.Mask))
)
