(module mount_hole_d4.1 locked (layer F.Cu) (tedit 5DA860A5)
  (fp_text reference H1 (at 0 2.54) (layer F.SilkS) hide
    (effects (font (size 1 1) (thickness 0.15)))
  )
  (fp_text value MountingHole (at 0 -2.54) (layer F.Fab) hide
    (effects (font (size 1 1) (thickness 0.15)))
  )
  (fp_circle (center 0 0) (end 2.1 0) (layer F.CrtYd) (width 0.1))
  (fp_circle (center 0 0) (end 2.3 0) (layer F.SilkS) (width 0.1))
  (pad "" np_thru_hole circle (at 0 0) (size 4.1 4.1) (drill 4.1) (layers *.Cu *.Mask))
)
