(module SolderPad_2x3_hole_top (layer F.Cu) (tedit 5BED8214)
  (fp_text reference REF** (at 0 2.54) (layer F.SilkS)
    (effects (font (size 1 1) (thickness 0.15)))
  )
  (fp_text value SolderPad_2x3_hole_top (at 0 -2.54) (layer F.Fab)
    (effects (font (size 1 1) (thickness 0.15)))
  )
  (pad 1 thru_hole roundrect (at 0 0) (size 3 2) (drill 1) (layers F.Cu F.Mask) (roundrect_rratio 0.25))
)
