(module TestPoint_1.5mm (layer F.Cu) (tedit 5CE699F3)
  (fp_text reference REF** (at 0 1.4) (layer F.SilkS)
    (effects (font (size 0.8 0.8) (thickness 0.15)))
  )
  (fp_text value TestPoint (at -0.01 -1.61) (layer F.Fab) hide
    (effects (font (size 1 1) (thickness 0.15)))
  )
  (fp_line (start -0.8 0.8) (end -0.8 -0.8) (layer F.CrtYd) (width 0.1))
  (fp_line (start 0.8 0.8) (end -0.8 0.8) (layer F.CrtYd) (width 0.1))
  (fp_line (start 0.8 0.8) (end 0.8 -0.8) (layer F.CrtYd) (width 0.1))
  (fp_line (start -0.8 -0.8) (end 0.8 -0.8) (layer F.CrtYd) (width 0.1))
  (pad 1 smd circle (at 0 0) (size 1.5 1.5) (layers F.Cu F.Paste F.Mask))
)
