(module TestPoint_Pad_D2.0mm (layer F.Cu) (tedit 5DFB9761)
  (descr "SMD pad as test Point, diameter 2.0mm")
  (tags "test point SMD pad")
  (attr virtual)
  (fp_text reference TP5 (at 0 -1.75) (layer F.SilkS)
    (effects (font (size 0.7 0.7) (thickness 0.15)))
  )
  (fp_text value TestPoint (at 0 2.05) (layer F.Fab) hide
    (effects (font (size 0.8 0.8) (thickness 0.15)))
  )
  (fp_text user %R (at 0 -2) (layer F.Fab)
    (effects (font (size 0.8 0.8) (thickness 0.15)))
  )
  (fp_circle (center 0 0) (end 1.2 0) (layer F.CrtYd) (width 0.05))
  (fp_circle (center 0 0) (end 0 1.2) (layer F.SilkS) (width 0.12))
  (fp_line (start -0.5 0.5) (end 0.5 -0.5) (layer F.Fab) (width 0.2))
  (fp_line (start 0.5 0.5) (end -0.5 -0.5) (layer F.Fab) (width 0.2))
  (pad 1 smd circle (at 0 0) (size 2 2) (layers F.Cu F.Mask))
)
